{
  "project_info": {
    "project_number": "482554201531",
    "firebase_url": "https://shyn-app.firebaseio.com",
    "project_id": "shyn-app",
    "storage_bucket": "shyn-app.appspot.com"
  },
  "client": [
    {
      "client_info": {
        "mobilesdk_app_id": "1:482554201531:android:15ef205e88df5a53",
        "android_client_info": {
          "package_name": "com.octasolutions.shynapp"
        }
      },
      "oauth_client": [
        {
          "client_id": "482554201531-u1urot6i0kh7cnfr7jdu2mm1f0e25mp1.apps.googleusercontent.com",
          "client_type": 1,
          "android_info": {
            "package_name": "com.octasolutions.shynapp",
            "certificate_hash": "1435DD88BE3AB08D17B2EFE65AA80B971838E2FC"
          }
        },
        {
          "client_id": "482554201531-apj3cmj4i0bl57ntfg3v54q8fsgmomjo.apps.googleusercontent.com",
          "client_type": 3
        }
      ],
      "api_key": [
        {
          "current_key": "AIzaSyCLAkXo70SiJyNT4lExPaOHBQ8cn81nPNg"
        }
      ],
      "services": {
        "analytics_service": {
          "status": 1
        },
        "appinvite_service": {
          "status": 2,
          "other_platform_oauth_client": [
            {
              "client_id": "482554201531-apj3cmj4i0bl57ntfg3v54q8fsgmomjo.apps.googleusercontent.com",
              "client_type": 3
            }
          ]
        },
        "ads_service": {
          "status": 2
        }
      }
    }
  ],
  "configuration_version": "1"
}